{
  "development": {
    "username": "kelvin",
    "password": "kelvin123",
    "database": "microservice_cars_development",
    "host": "localhost",
    "dialect": "postgres",
    "logging": false
  },
  "test": {
    "username": "kelvin",
    "password": "kelvin123",
    "database": "microservice_cars_test",
    "host": "localhost",
    "dialect": "postgres"
  },
  "production": {
    "username": "kelvin",
    "password": "kelvin123",
    "database": "microservice_cars_production",
    "host": "localhost",
    "dialect": "postgres"
  }
}
